adpmod 0.200610 -0.030580 0.127333 -0.052795 0.310005 0.002189 -0.132613 0.201784 0.067003 -0.292741 -0.208636 0.199107 0.230037 0.257472 0.051093 0.232248 -0.118754 0.049398 -0.049576 -0.375032 -0.187018 -0.010442 -0.069171 -0.144350 0.142035 0.138625 0.009713 0.230344 -0.148964 -0.084084 -0.046301 0.024238 0.117521 0.056623 0.109914 0.090369 0.024631 -0.229641 0.144317 -0.110353 -0.131645 -0.099805 -0.104822 0.018312 0.049148 0.005808 0.008775 -0.076936 0.052658 -0.051180
adpobj 0.296296 -0.130977 -0.062794 -0.152400 0.218158 -0.224577 -0.120680 -0.198509 -0.065536 0.049323 -0.259430 -0.001532 0.227598 0.254894 0.198397 0.177171 -0.011561 0.070855 0.071285 0.315937 -0.058401 0.093025 -0.346520 0.032310 0.302977 0.114409 0.141508 0.053845 -0.214893 -0.046182 0.151633 0.295004 -0.197764 0.098199 -0.017337 -0.060176 0.019303 0.085374 -0.021235 -0.012342 -0.030869 -0.052475 -0.146737 0.080824 -0.137378 -0.094373 0.037532 0.036144 -0.304197 -0.151897
p 0.098781 -0.172787 0.204305 0.088523 0.143340 -0.187988 -0.111456 -0.235181 0.009909 0.065053 0.177004 -0.068055 0.117208 0.290623 0.041175 -0.089340 -0.160622 0.126713 -0.106985 -0.122964 -0.057771 -0.029004 -0.172121 -0.024518 0.055620 0.116548 0.056710 0.155910 0.142814 -0.025749 0.016182 0.043282 -0.024862 0.128942 -0.051908 0.065105 -0.024167 0.037713 0.264649 0.047713 0.028197 -0.010644 -0.055788 0.040185 0.231769 0.167415 0.100473 0.147409 0.079936 -0.045291
det 0.049602 0.093685 -0.068348 -0.179913 -0.030228 -0.005633 0.126869 -0.097731 0.122269 0.064865 -0.124919 0.092158 0.148460 0.372154 -0.014303 -0.082083 0.122424 -0.068349 -0.124365 -0.090504 0.182415 0.231779 0.044816 0.301670 0.016212 -0.371123 -0.112954 0.195538 0.216901 -0.003153 0.173793 0.004085 -0.049924 -0.133083 0.085009 0.225584 -0.024161 -0.066591 0.127046 -0.218200 0.045777 0.013253 0.081971 0.106459 0.270753 -0.025311 -0.001875 0.103179 -0.142248 -0.265778
amod 0.003522 -0.136625 0.006952 -0.070930 0.219081 -0.038008 -0.146771 -0.122797 -0.078099 -0.091578 -0.078359 0.138782 0.163849 0.303349 -0.132795 0.068340 0.203173 0.054181 0.199651 -0.088496 -0.033562 -0.012587 -0.070416 0.139062 0.336835 0.030436 -0.028176 0.126957 -0.245912 -0.155132 0.004411 0.150892 0.055517 -0.057588 0.251831 -0.080046 -0.244599 -0.175025 -0.040398 0.085266 -0.004014 0.051719 -0.024135 -0.254117 0.012896 -0.194941 0.059486 0.055158 -0.060190 -0.161194
nsubj -0.020762 -0.006405 -0.133220 0.449571 0.003634 0.199140 -0.122435 -0.195383 0.179044 -0.017535 -0.003776 -0.064962 -0.037931 -0.151862 0.050486 -0.007758 -0.117710 -0.026315 -0.058265 -0.079825 0.299253 -0.077797 -0.010190 -0.167907 -0.131535 -0.105500 0.428536 0.187347 -0.038742 0.007969 -0.088726 0.055960 0.099279 -0.268548 -0.332641 -0.515562 0.346694 -0.198108 0.024034 -0.046630 0.306066 0.112601 0.378995 -0.250316 -0.250239 0.058616 -0.011278 0.037838 0.041206 -0.429010
ROOT 0.390768 0.183966 0.199048 0.112477 0.216359 0.246344 0.263248 0.077658 -0.419120 0.243990 -0.010632 -0.073937 -0.360843 0.041667 0.095024 0.138243 0.263211 -0.000557 0.128978 0.300803 -0.037396 0.168845 -0.229446 0.001222 -0.047718 0.055151 -0.131018 0.302944 -0.027004 -0.101342 0.254764 0.135960 0.003818 0.084450 0.294216 -0.123482 0.326381 -0.214220 -0.127657 -0.111735 0.173407 0.192722 0.273596 0.188715 0.260262 -0.045930 -0.020959 -0.058132 0.541009 0.491725
dobj 0.147138 -0.329386 -0.035154 0.224554 -0.255812 -0.162777 -0.121092 0.190839 0.258628 -0.249834 0.237678 -0.190799 -0.048633 -0.189324 0.113906 0.347267 -0.001532 -0.447696 -0.053884 0.000053 0.214773 0.399087 -0.214943 -0.026784 0.196474 -0.113702 0.289261 -0.236344 -0.023289 -0.109747 0.261718 -0.070528 0.211131 -0.152840 -0.085154 -0.224212 0.130598 0.004619 0.082007 -0.148625 -0.063291 -0.148393 0.106669 -0.195411 -0.194298 0.048572 -0.241680 0.076722 -0.220325 0.071042
conj -0.022180 -0.256677 0.429266 -0.032268 -0.049770 -0.627496 -0.495381 0.047630 -0.062947 -0.211005 -0.180874 0.035286 -0.419184 0.205240 0.324492 -0.003029 -0.053310 0.195568 0.026382 -0.008625 -0.028330 -0.253570 -0.187793 -0.068106 0.211669 -0.144714 -0.268715 0.127161 -0.071208 0.381105 0.126578 0.057536 -0.077633 -0.668597 0.144627 0.020720 0.023343 -0.000458 -0.136704 -0.171980 0.164516 0.322970 0.130514 0.178266 -0.354268 0.014890 0.039609 0.125442 0.086002 0.305390
cc 0.295161 -0.558736 0.114439 0.237225 -0.080474 -0.193098 -0.098159 -0.005521 0.246101 0.261333 0.082097 -0.103134 0.230528 0.510989 -0.054475 -0.427510 0.035875 -0.403512 0.227963 -0.032929 -0.078468 -0.355753 -0.388897 0.035115 -0.419941 0.519481 0.205092 0.051472 0.192891 -0.131958 0.248927 0.002107 0.194738 -0.280754 0.170167 0.058573 -0.167486 -0.345598 -0.076308 -0.150392 -0.250305 0.246531 0.129771 0.034125 -0.103168 0.437816 -0.294468 -0.045970 -0.006200 0.136930
advmod -0.076507 0.342681 0.072857 0.030588 -0.291886 0.076149 -0.018331 -0.077567 0.054476 -0.109556 -0.096389 0.055338 -0.158035 0.197604 0.180449 -0.189305 0.010509 -0.036132 -0.024203 0.172905 0.176899 0.020101 -0.206666 -0.011234 0.283422 -0.002553 0.133160 0.188897 0.027999 -0.204871 0.099573 -0.012988 0.077235 -0.107120 -0.075485 0.014802 -0.059144 -0.131027 0.113334 -0.002469 -0.002008 0.080443 -0.033329 -0.034869 -0.090272 0.228183 -0.283689 0.073125 -0.014308 0.034701
compmod -0.301724 -0.638121 0.063729 -0.398266 0.220143 -0.168687 -0.068725 -0.505503 -0.150432 0.113868 0.005979 0.137737 0.124930 -0.069784 -0.060904 0.136759 -0.370942 0.152799 -0.117944 -0.060823 0.127143 -0.342967 -0.062180 0.059835 -0.191732 -0.114527 -0.067598 0.121802 0.111728 0.057602 0.066017 0.284333 -0.114130 0.071619 0.146455 0.074814 -0.369135 0.002505 0.024394 0.264644 -0.030338 -0.108203 0.010451 -0.159295 0.171471 0.107045 0.086564 0.168995 0.103331 0.062007
appos -0.199417 -0.583825 -0.367619 -0.403780 -0.030986 -0.022848 0.119998 -0.266625 -0.015553 0.209976 -0.296072 0.130835 0.346772 0.081410 0.239986 -0.016823 -0.390983 0.193619 -0.150801 0.075609 0.004839 -0.340166 -0.138105 -0.024814 -0.113188 -0.080962 0.171066 0.222868 0.022475 0.272022 0.085652 0.312823 -0.210785 -0.042697 -0.084862 -0.032995 -0.334251 -0.078633 -0.155088 0.046995 -0.200139 -0.069980 0.045100 -0.135379 -0.286047 0.073256 0.180237 0.273335 0.184187 0.410211
num -0.048125 0.308425 0.433299 -0.356140 0.072994 -0.080666 -0.078356 -0.277666 0.087458 -0.414337 0.056541 0.092028 -0.183483 -0.111827 0.287356 0.208907 -0.407382 -0.562287 -0.091941 0.176740 0.205752 -0.463488 -0.409089 0.133843 0.064658 0.374232 -0.196874 0.586574 -0.180110 0.125626 0.374650 0.170486 -0.141531 0.156018 0.104298 0.204402 -0.090581 0.130040 0.033100 0.069286 -0.146957 -0.182653 -0.170481 -0.027765 0.059423 0.291720 0.027266 -0.037532 -0.052175 -0.335568
mark 0.355351 0.595227 0.111198 0.436176 -0.188371 0.054735 -0.013712 0.191392 -0.095368 0.139156 -0.107794 -0.241678 -0.261608 -0.225921 0.101033 0.071044 0.335740 -0.266861 -0.017243 -0.209707 0.406600 0.296573 0.239228 0.270547 -0.145164 0.044028 0.188784 0.019023 0.070933 0.241851 0.039099 0.406329 0.113773 -0.280514 -0.069653 0.606922 -0.211672 0.087299 0.152045 0.076307 -0.145962 -0.027478 0.629649 -0.485745 0.298558 -0.196017 -0.645284 -0.076269 -0.215386 -0.130813
rcmod 0.220404 0.289692 0.223583 0.021075 0.163590 0.202009 0.252787 -0.068831 -0.256385 0.195444 0.040462 0.096127 -0.268945 0.096138 -0.025775 0.164976 0.367189 -0.140617 0.201056 0.056289 0.065856 0.261129 -0.053282 0.163689 -0.159025 -0.106339 -0.218921 0.394346 -0.098663 -0.229640 0.177351 0.231183 0.098377 -0.032474 0.399025 0.149688 0.071139 -0.325966 -0.095221 -0.101141 0.113073 0.460880 0.189565 0.269465 0.321850 -0.026887 -0.258752 -0.016937 0.165969 0.340702
aux -0.394592 0.286175 0.230909 -0.171091 -0.505020 0.171453 0.055236 0.099415 0.223050 -0.044807 -0.012802 0.047642 -0.282280 -0.036688 0.118677 -0.280475 0.280828 -0.294540 0.047345 0.185383 0.271812 0.039937 0.076410 0.167536 0.060629 -0.102553 0.145209 0.283870 0.102300 -0.235772 0.029207 -0.169121 0.190955 -0.158253 -0.099341 0.182074 -0.071136 -0.172734 0.019969 -0.199502 -0.038838 0.134528 0.063975 -0.140803 0.010754 -0.007453 -0.485062 -0.216654 -0.117119 -0.229284
partmod 0.292070 0.175255 -0.055493 -0.017845 0.356843 -0.117476 -0.098814 -0.026441 -0.091657 -0.086812 -0.082614 0.083764 0.234890 0.399538 -0.077371 0.113167 0.003174 -0.048892 0.142697 0.098922 -0.001793 -0.145755 -0.243527 0.084908 0.065588 0.189114 -0.018917 0.334944 -0.260890 -0.139088 0.045924 0.229035 0.021388 -0.034462 0.174851 -0.158300 0.024575 -0.117060 -0.285935 0.007689 0.032546 0.067415 0.040997 -0.064974 -0.046403 -0.170788 0.342750 -0.063633 0.193563 -0.122773
auxpass -0.673717 -0.163562 -0.030845 0.620620 -0.590637 -0.092553 -0.056938 0.029707 0.017997 0.325514 0.175515 0.032849 -0.535531 -0.252187 -0.186141 0.259104 0.211332 -0.411835 0.182775 -0.126404 -0.068386 -0.222350 -0.079190 -0.375129 0.455692 -0.212579 -0.042880 0.393137 -0.199842 0.379735 0.532762 -0.382452 -0.428400 -0.072718 0.349619 -0.199545 -0.073260 -0.591154 0.585460 -0.602465 -0.080621 -0.476341 -0.144952 -0.182176 -0.070352 0.047923 -0.180116 -0.199144 -0.449852 -0.700703
advcl 0.379548 0.204486 0.168272 -0.062213 0.089148 0.163589 0.027902 0.415896 -0.093931 0.003784 -0.418891 -0.106066 -0.330217 0.070010 0.034180 -0.589037 0.226303 -0.098031 0.073492 0.475800 0.188364 -0.139252 -0.099875 0.270140 -0.015143 0.272423 -0.083605 -0.085913 0.400764 -0.023618 0.223088 -0.347759 0.237583 -0.172977 0.036448 -0.121424 0.427400 0.024543 -0.345438 -0.113387 0.268223 -0.244647 0.649716 -0.324973 0.023632 -0.053990 0.148943 -0.344631 0.559685 -0.444364
ccomp 0.186257 0.313340 0.118681 0.105331 0.003670 0.211293 0.057916 0.257738 0.060478 -0.014711 -0.017854 -0.004996 -0.310021 0.057968 -0.046329 -0.207983 0.249193 -0.088103 0.056492 0.268716 0.293265 0.254992 -0.209200 0.148857 0.163016 -0.094019 0.015723 0.097364 0.232343 -0.354551 0.311948 -0.204413 0.276304 -0.108592 0.149824 -0.266915 0.439560 -0.274535 -0.144482 -0.135251 0.324817 0.251032 0.426923 0.102070 0.049949 -0.015320 -0.150934 -0.061691 0.359880 0.058541
attr 0.092068 0.045248 -0.316147 0.344586 -0.323196 0.122093 0.175457 0.000911 0.303714 0.010472 0.314224 -0.173054 0.226617 0.142847 0.083703 0.079038 0.070698 -0.136253 -0.126390 -0.234206 0.131558 0.634787 0.028643 0.051538 0.298521 -0.183680 0.420636 -0.117699 -0.018577 -0.101692 -0.014826 -0.006163 0.111518 0.026330 -0.307286 -0.201668 0.063980 -0.010104 0.228917 -0.188279 -0.024368 0.025170 0.064721 -0.201018 -0.109306 -0.126867 -0.040361 0.287222 -0.261776 0.089156
adpcomp 0.290308 0.131159 0.149036 0.093134 0.206293 -0.216592 -0.204434 -0.209667 -0.152368 0.142925 0.053143 -0.079700 -0.010745 0.262510 -0.078365 0.101242 0.390394 -0.083124 0.364875 0.451316 0.153745 0.111997 -0.266373 0.175455 -0.007222 0.096390 0.234545 0.164070 -0.213124 -0.511371 -0.010952 0.279654 0.253929 -0.270007 0.120644 -0.253065 0.097294 -0.284992 -0.283844 -0.126453 0.227891 0.380537 0.174704 -0.048685 0.002692 -0.237371 -0.184044 -0.250914 -0.146772 -0.304714
nsubjpass -0.414080 -0.145663 0.408214 -0.263619 -0.112749 0.527498 -0.003794 0.452804 0.389231 0.222744 -0.395648 -0.066887 -0.250348 -0.716783 0.412107 -0.280630 0.198923 0.087631 0.049835 0.033388 -0.208585 0.006214 -0.093458 -0.101182 0.468234 0.813714 0.594882 0.190416 -0.030374 0.075712 0.033539 0.029087 -0.213894 0.579300 -0.343505 0.200655 0.389696 0.096119 0.146188 -0.145258 -0.048261 -0.223593 0.336210 -0.309776 -0.226971 -0.655673 -0.453629 -0.524212 -0.168356 -0.456788
adp -0.286560 -0.148351 0.517623 -0.001900 0.039798 0.326133 0.013328 -0.013378 0.480321 0.222353 -0.035313 0.110210 -0.486565 -0.485423 0.180307 -0.182439 -0.040699 -0.389714 0.014130 0.060905 0.395420 0.084506 -0.303631 0.078080 0.101089 0.231188 0.215522 0.476794 0.093349 0.111363 0.769299 0.056963 -0.408055 0.382319 0.188267 0.017050 0.365665 -0.054886 0.200482 -0.001660 0.172674 0.397437 0.421983 0.214520 -0.090956 0.101285 -0.497092 0.095611 -0.304734 -0.148161
poss 0.170183 -0.091349 0.074622 -0.042998 0.102563 -0.173604 -0.137051 0.086355 0.128269 -0.099667 -0.039072 -0.009253 0.114894 0.295236 -0.046042 0.046677 0.188307 -0.177047 0.049236 -0.126432 0.155087 0.117961 -0.077379 0.286532 0.116890 -0.090320 -0.024575 0.109567 0.016764 -0.071718 0.141016 0.016911 0.190795 -0.299149 0.191529 0.060252 -0.049372 -0.168709 -0.089642 -0.219848 0.022118 0.046496 0.197155 -0.129994 0.077282 -0.216976 0.012638 -0.050555 -0.086240 -0.267497
acomp -0.138337 0.434304 -0.020810 0.210539 -0.531951 -0.183941 -0.149888 0.181443 0.245364 -0.250306 0.530571 -0.161279 -0.076912 0.183492 -0.036839 -0.025574 -0.075969 -0.371071 -0.138364 0.013475 0.606216 0.155899 -0.277386 0.345195 0.681477 -0.188198 0.236745 0.153416 0.107169 -0.158630 0.431051 -0.070931 0.266285 -0.060051 0.029000 -0.207160 -0.330509 -0.046291 -0.032541 0.097036 -0.067570 0.012986 0.174460 -0.467157 -0.114899 -0.067402 -0.097599 0.354179 -0.018396 0.108139
neg -0.201618 0.128755 0.120524 -0.041007 -0.381122 0.064374 -0.080667 0.198566 0.284325 -0.035467 -0.006927 -0.042326 -0.166116 0.074795 0.074077 -0.282592 0.235042 -0.113661 -0.000862 -0.073484 0.403385 0.140224 -0.012983 0.329537 0.204655 -0.175448 0.188928 0.102811 0.223281 -0.115658 0.174288 -0.050133 0.242246 -0.308934 -0.010448 0.054728 -0.089819 -0.183785 -0.047838 -0.128138 0.078353 0.270660 0.378382 -0.205221 -0.082356 -0.159534 -0.444907 0.041179 -0.080573 -0.018335
nmod -0.065121 0.051647 -0.023825 -0.084878 -0.224514 -0.006815 -0.053290 0.072396 -0.037595 -0.099189 -0.120531 0.000182 -0.008587 -0.074813 0.282113 0.054955 -0.282371 -0.276406 -0.017255 0.050574 0.208546 -0.406909 -0.322134 0.096325 0.430379 0.397886 0.179589 0.417742 -0.276877 0.363903 0.382867 0.385619 -0.197609 0.107140 0.073536 0.016751 -0.487972 0.043417 -0.186540 0.285932 -0.353023 -0.233721 0.196946 -0.655175 -0.408016 -0.035086 0.093974 0.262091 0.225086 0.322097
mwe 0.581319 0.421028 0.014861 0.223806 -0.031478 -0.392082 -0.193047 0.664118 -0.340610 -0.010837 -0.373525 -0.327441 -0.242132 0.088940 0.077233 -0.037583 0.133441 -0.211091 -0.066744 0.336207 0.063331 -0.033749 -0.239555 0.102246 0.253729 0.275961 -0.164666 -0.214638 0.259439 0.281366 0.283771 -0.174112 0.096187 -0.229733 0.050961 0.274122 0.252443 0.211611 -0.045198 -0.258738 -0.044877 -0.893023 0.482693 -0.484747 0.205648 -0.266994 0.218743 -0.489087 0.307984 -0.633078
xcomp -0.073721 0.191731 0.122454 0.007100 -0.244010 0.033845 -0.103618 0.107192 0.297889 -0.170346 0.110042 0.020326 -0.058964 0.091759 -0.019590 -0.092071 0.189701 -0.340325 0.065726 0.067662 0.441990 0.123106 -0.084506 0.272813 0.074282 -0.092475 0.248723 0.180259 0.055878 -0.358158 0.139331 -0.012378 0.397620 -0.289650 0.003689 -0.066685 -0.093904 -0.249011 -0.113930 -0.038370 0.023939 0.281891 0.268560 -0.236100 -0.088185 0.009690 -0.392291 -0.013680 -0.073836 -0.108869
parataxis 0.070464 0.183221 -0.051834 -0.182155 -0.059967 0.208514 0.219538 0.080852 -0.192184 0.096096 -0.176399 0.064959 -0.113498 0.005023 0.192579 0.002949 0.057428 -0.078613 0.059842 0.301210 0.123323 -0.049746 -0.188677 0.089858 0.028169 0.028880 0.007978 0.303030 -0.090629 -0.066412 0.204240 0.192285 0.048064 0.011352 0.154291 -0.044654 -0.088696 -0.195782 -0.294321 0.033262 -0.074539 0.157075 0.176615 -0.054878 -0.107728 0.000341 -0.084802 0.061320 0.384334 0.548413
prt -0.097869 0.131472 -0.223762 0.081356 -0.310590 0.144238 0.089483 0.109612 0.187803 -0.069093 0.154030 -0.012055 0.060517 0.052310 -0.013587 0.112615 -0.008116 -0.262085 -0.109500 0.060568 0.390820 0.281362 -0.204736 0.138817 0.405726 -0.303103 0.252383 0.170233 0.048109 -0.195342 0.348750 -0.054094 0.111197 -0.011116 0.009014 -0.249981 -0.056721 -0.224695 0.063378 -0.101847 -0.007274 -0.112112 0.160772 -0.272023 -0.075547 -0.012228 -0.091187 0.192367 0.001365 -0.027554
csubj 0.045525 0.622343 0.029263 0.220668 -0.085648 0.198865 -0.058658 0.017381 0.179023 -0.063995 0.050306 0.006800 -0.107673 0.196652 -0.108688 -0.379976 0.150563 -0.068957 0.027947 0.164109 0.469064 0.014731 -0.067058 0.163650 -0.124363 -0.071923 0.226878 0.205419 0.185074 -0.463464 -0.052822 -0.090902 0.346826 -0.259844 -0.112905 -0.240550 0.232981 -0.237855 -0.186846 0.024866 0.315528 0.402053 0.338000 -0.018911 -0.022479 0.092901 -0.217054 -0.076644 0.191168 -0.199082
iobj -0.467919 0.230467 0.164079 -0.172782 -0.539423 0.099681 0.126014 0.132309 0.137034 -0.094907 -0.142827 0.041723 -0.521664 -0.339063 0.326387 0.046720 0.213930 -0.638979 0.098139 0.449835 0.190736 -0.235182 -0.126208 -0.008551 -0.183324 -0.215462 -0.141339 0.431357 -0.077273 0.034361 0.200618 -0.305363 0.072450 -0.460546 0.023206 0.056847 0.120165 -0.329755 -0.148733 -0.555026 -0.066929 -0.040142 -0.011013 0.042274 -0.198754 0.147158 -0.388824 -0.416173 -0.075125 -0.319133
dep -0.049172 0.086618 -0.018174 -0.031510 -0.128252 0.146406 0.051552 0.054501 0.071957 -0.061899 -0.012668 0.057246 -0.096176 0.016651 0.073348 -0.024377 0.011903 -0.141719 -0.022038 0.017497 0.289150 0.003519 -0.084657 0.135045 0.168222 -0.128154 0.103206 0.235528 0.008381 -0.044676 0.195630 0.026383 0.129686 -0.114479 0.070938 -0.178646 -0.031983 -0.194996 -0.119513 -0.009827 0.045600 0.096416 0.235275 -0.214352 -0.120856 -0.015911 -0.059119 0.125515 0.202867 0.130908
infmod -0.018522 0.148793 0.174997 -0.018748 -0.065691 0.074782 0.007747 0.096098 0.002975 0.025775 -0.107681 0.036292 -0.182996 0.009659 0.081774 -0.040897 0.193024 -0.167430 0.101160 0.109262 0.029627 -0.000080 -0.099092 0.041540 0.040472 0.066779 -0.016876 0.221670 -0.032971 -0.070662 0.127724 -0.014092 0.032672 -0.083918 0.111855 0.077532 0.081952 -0.174412 -0.021004 -0.175406 0.005485 0.072506 0.084765 0.015284 0.010271 -0.042041 -0.212170 -0.176169 -0.007680 -0.107923
csubjpass 0.020769 0.014343 0.007506 -0.006288 0.008582 0.003072 -0.010338 0.020681 0.009078 0.000632 -0.027088 -0.000335 -0.002155 0.023208 0.014184 -0.021159 0.018541 -0.006989 0.017351 0.012590 0.009042 -0.005331 -0.005027 0.023745 -0.002749 0.008359 -0.005730 -0.002438 0.008586 -0.006856 0.002868 -0.010382 0.024775 -0.030907 0.012150 0.002475 0.006819 -0.011443 -0.015835 -0.012688 0.006309 0.022579 0.020690 0.002868 -0.007235 -0.018159 -0.019700 -0.013584 0.013849 -0.006593
NULL 0.020769 0.014343 0.007506 -0.006288 0.008582 0.003072 -0.010338 0.020681 0.009078 0.000632 -0.027088 -0.000335 -0.002155 0.023208 0.014184 -0.021159 0.018541 -0.006989 0.017351 0.012590 0.009042 -0.005331 -0.005027 0.023745 -0.002749 0.008359 -0.005730 -0.002438 0.008586 -0.006856 0.002868 -0.010382 0.024775 -0.030907 0.012150 0.002475 0.006819 -0.011443 -0.015835 -0.012688 0.006309 0.022579 0.020690 0.002868 -0.007235 -0.018159 -0.019700 -0.013584 0.013849 -0.006593
